<svg width="10" height="17" viewBox="0 0 10 17" fill="none" xmlns="http://www.w3.org/2000/svg">
<g clip-path="url(#clip0)">
<path d="M5.00046 0C2.54331 0 0.544451 1.96811 0.544451 4.3876C0.544451 6.8069 2.54331 8.77413 5.00046 8.77413C7.45752 8.77413 9.4554 6.8069 9.4554 4.3876C9.4554 1.96811 7.45754 0 5.00046 0ZM5.00046 2.57072C6.01741 2.57072 6.84437 3.38616 6.84437 4.3876C6.84437 5.38861 6.01742 6.20342 5.00046 6.20342C3.98331 6.20342 3.15548 5.38863 3.15548 4.3876C3.15548 3.38616 3.98331 2.57072 5.00046 2.57072ZM1.32669 8.9234C0.885826 8.91665 0.452301 9.13065 0.200814 9.5253C-0.183512 10.1265 0.000597419 10.9199 0.609739 11.2981C1.41547 11.7959 2.28979 12.1491 3.19649 12.3526L0.706308 14.8059C0.196532 15.3082 0.196964 16.1216 0.706844 16.6239C0.962405 16.8745 1.29572 17 1.62988 17C1.96369 17 2.29813 16.8744 2.55291 16.6233L4.99941 14.2131L7.44806 16.6233C7.9574 17.1255 8.78333 17.1255 9.29358 16.6233C9.80358 16.1214 9.80358 15.3071 9.29358 14.8059L6.8023 12.3532C7.70926 12.1496 8.58388 11.7962 9.38906 11.2981C9.99941 10.9199 10.1838 10.1257 9.79959 9.52532C9.41495 8.92395 8.60963 8.74279 7.99883 9.12157C6.17462 10.2515 3.82413 10.2508 2.00048 9.12157C1.79056 8.99137 1.55762 8.92696 1.32669 8.92342V8.9234Z" fill="white"/>
</g>
<defs>
<clipPath id="clip0">
<rect width="10" height="17" fill="white"/>
</clipPath>
</defs>
</svg>
